<?xml version="1.0" encoding="utf-8"?>
<!-- Generator: Adobe Illustrator 19.2.0, SVG Export Plug-In . SVG Version: 6.00 Build 0)  -->
<svg version="1.1" id="Layer_1" xmlns="http://www.w3.org/2000/svg" xmlns:xlink="http://www.w3.org/1999/xlink" x="0px" y="0px"
	 viewBox="0 0 512 512" style="enable-background:new 0 0 512 512;" xml:space="preserve">
<style type="text/css">
	.st0{fill:#595959;}
</style>
<g id="Play">
	<path class="st0" d="M484.6,219.7L82.2,5.1c-11.9-6-26.7-5-37.8-5C-0.2,0.1,0,29.2,0,36.6v438.8c0,6.2-0.2,36.6,44.4,36.6
		c11.2,0,25.9,1,37.8-5l402.4-214.7c33-16.6,27.3-36.3,27.3-36.3S517.7,236.4,484.6,219.7z"/>
</g>
</svg>
